…
### Test/Train Split

```r
housing_split <- housing |> 
  initial_split(prop = 0.8)

housing_train <- training(housing_split)

housing_test <- testing(housing_split)

housing_train
```

```
# A tibble: 404 × 14
      crim    zn indus chas    nox    rm   age   dis   rad   tax ptratio     b lstat  medv
     <dbl> <dbl> <dbl> <fct> <dbl> <dbl> <dbl> <dbl> <dbl> <dbl>   <dbl> <dbl> <dbl> <dbl>
 1  0.207      0 27.7  0     0.609  5.09  98    1.82     4   711    20.1 318.  29.7    8.1
 2 11.8        0 18.1  0     0.718  6.82  76.5  1.79    24   666    20.2  48.4 22.7    8.4
 3  0.142      0  6.91 0     0.448  6.17   6.6  5.72     3   233    17.9 383.   5.81  25.3
 4  0.0883     0 10.8  0     0.413  6.42   6.6  5.29     4   305    19.2 384.   6.72  24.2
 5  0.127      0  6.91 0     0.448  6.77   2.9  5.72     3   233    17.9 385.   4.84  26.6
 6  0.0918     0  4.05 0     0.51   6.42  84.1  2.65     5   296    16.6 396.   9.04  23.6
 7  0.0178    95  1.47 0     0.403  7.14  13.9  7.65     3   402    17   384.   4.45  32.9
 8  4.67       0 18.1  0     0.713  5.98  87.9  2.58    24   666    20.2  10.5 19.0   12.7
 9  0.141      0 13.9  0     0.437  5.79  58    6.32     4   289    16   397.  15.8   20.3
10  0.0689     0  2.46 0     0.488  6.14  62.2  2.60     3   193    17.8 397.   9.45  36.2
# ℹ 394 more rows
# ℹ Use `print(n = ...)` to see more rows
```
…
