…
## Predicting with a Workflow

Now that we have a fitted model we can use it to make predictions. To do this we use the `predict()` function. This function takes two arguments: the fitted model and the data. The data is the data that we want to use to make predictions. In this case we want to use the test data that we created in a previous session. You can see the predictions of the model in the output below.

```r
housing_res <- housing_fit |> 
  predict(housing_train)

housing_res
```

```
# A tibble: 404 × 1
   .pred
   <dbl>
 1 21.3 
 2 12.0 
 3 39.5 
 4 22.5 
 5  9.16
 6 18.8 
 7 20.3 
 8 35.9 
 9 24.0 
10 20.4 
# ℹ 394 more rows
# ℹ Use `print(n = ...)` to see more rows
```
…
