…
Now we can start generating sets of values to test, the simplest method for doing this is using a tuning grid. To create one, a predefined number of values are selected for each hyperparameter and every combination of these values is tested. We do this using the `grid_regular()` function, passing through the tuning parameters we extracted from the model and the number of values we want to test for each hyperparameter as 'levels'. There are other, arguably more sophisticated, methods for generating tuning grids, you may wish to try using `grid_max_entropy()` or `grid_latin_hypercube()` instead (*hint:* if you wish to use these you will need to replace the `levels` argument with `size`). We are going to use 100 values for each hyperparameter.

```r
tuning_grid <- grid_regular(
  tuning_params,
  levels = 100
)

tuning_grid
```

```
# A tibble: 54,600 × 3
    mtry trees min_n
   <int> <int> <int>
 1     1     1     2
 2     2     1     2
 3     3     1     2
 4     4     1     2
 5     5     1     2
 6     6     1     2
 7     7     1     2
 8     8     1     2
 9     9     1     2
10    10     1     2
# ℹ 54,590 more rows
# ℹ Use `print(n = ...)` to see more rows
```
…
