…
We can also check whether there are any "structural errors" in our model by comparing plots of true and predicted values.

```r
housing_lin_reg_test_res <- housing_lin_reg_last_fit |> 
  extract_workflow() |> 
  predict(housing_test)

housing_lin_reg_test_res
```

```
# A tibble: 102 × 1
   .pred
   <dbl>
 1 20.4 
 2 21.7 
 3 18.9 
 4 16.2 
 5 13.9 
 6 11.4 
 7  8.39
 8 22.8 
 9 34.4 
10 25.4 
# ℹ 92 more rows
# ℹ Use `print(n = ...)` to see more rows
```
…
